wrk -t4 -c100 -R10000 -d60 -L http://localhost:8081
Running 1m test @ http://localhost:8081
  4 threads and 100 connections
  Thread calibration: mean lat.: 3.373ms, rate sampling interval: 14ms
  Thread calibration: mean lat.: 3.732ms, rate sampling interval: 16ms
  Thread calibration: mean lat.: 3.461ms, rate sampling interval: 14ms
  Thread calibration: mean lat.: 3.426ms, rate sampling interval: 13ms
  Thread Stats   Avg      Stdev     Max   +/- Stdev
    Latency    80.99ms  274.15ms   1.70s    92.26%
    Req/Sec     2.62k     1.21k   14.71k    82.38%
  Latency Distribution (HdrHistogram - Recorded Latency)
 50.000%    1.54ms
 75.000%    5.29ms
 90.000%   63.10ms
 99.000%    1.43s 
 99.900%    1.59s 
 99.990%    1.68s 
 99.999%    1.69s 
100.000%    1.70s 

  Detailed Percentile spectrum:
       Value   Percentile   TotalCount 1/(1-Percentile)

       0.105     0.000000            1         1.00
       0.694     0.100000        50051         1.11
       0.902     0.200000        99864         1.25
       1.092     0.300000       149707         1.43
       1.299     0.400000       199725         1.67
       1.543     0.500000       249551         2.00
       1.697     0.550000       274403         2.22
       1.904     0.600000       299353         2.50
       2.247     0.650000       324299         2.86
       3.205     0.700000       349164         3.33
       5.291     0.750000       374105         4.00
       6.691     0.775000       386589         4.44
       8.495     0.800000       399062         5.00
      11.343     0.825000       411523         5.71
      15.647     0.850000       424007         6.67
      24.287     0.875000       436451         8.00
      34.559     0.887500       442692         8.89
      63.103     0.900000       448922        10.00
     197.759     0.912500       455156        11.43
     387.839     0.925000       461392        13.33
     560.127     0.937500       467640        16.00
     637.951     0.943750       470762        17.78
     712.191     0.950000       473868        20.00
     799.743     0.956250       476985        22.86
     912.383     0.962500       480099        26.67
    1031.679     0.968750       483219        32.00
    1135.615     0.971875       484777        35.56
    1248.255     0.975000       486342        40.00
    1308.671     0.978125       487906        45.71
    1346.559     0.981250       489510        53.33
    1381.375     0.984375       491010        64.00
    1394.687     0.985938       491813        71.11
    1405.951     0.987500       492591        80.00
    1419.263     0.989062       493408        91.43
    1433.599     0.990625       494182       106.67
    1446.911     0.992188       494909       128.00
    1453.055     0.992969       495297       142.22
    1460.223     0.993750       495712       160.00
    1469.439     0.994531       496093       182.86
    1484.799     0.995313       496479       213.33
    1508.351     0.996094       496880       256.00
    1527.807     0.996484       497053       284.44
    1547.263     0.996875       497246       320.00
    1556.479     0.997266       497466       365.71
    1563.647     0.997656       497657       426.67
    1569.791     0.998047       497830       512.00
    1574.911     0.998242       497931       568.89
    1577.983     0.998437       498031       640.00
    1582.079     0.998633       498152       731.43
    1586.175     0.998828       498225       853.33
    1591.295     0.999023       498327      1024.00
    1597.439     0.999121       498370      1137.78
    1604.607     0.999219       498412      1280.00
    1611.775     0.999316       498475      1462.86
    1617.919     0.999414       498516      1706.67
    1624.063     0.999512       498565      2048.00
    1635.327     0.999561       498582      2275.56
    1647.615     0.999609       498607      2560.00
    1658.879     0.999658       498631      2925.71
    1662.975     0.999707       498656      3413.33
    1669.119     0.999756       498684      4096.00
    1671.167     0.999780       498692      4551.11
    1674.239     0.999805       498707      5120.00
    1676.287     0.999829       498715      5851.43
    1677.311     0.999854       498728      6826.67
    1678.335     0.999878       498745      8192.00
    1679.359     0.999890       498755      9102.22
    1679.359     0.999902       498755     10240.00
    1680.383     0.999915       498760     11702.86
    1682.431     0.999927       498766     13653.33
    1684.479     0.999939       498771     16384.00
    1686.527     0.999945       498774     18204.44
    1687.551     0.999951       498779     20480.00
    1687.551     0.999957       498779     23405.71
    1688.575     0.999963       498783     27306.67
    1689.599     0.999969       498793     32768.00
    1689.599     0.999973       498793     36408.89
    1689.599     0.999976       498793     40960.00
    1689.599     0.999979       498793     46811.43
    1689.599     0.999982       498793     54613.33
    1689.599     0.999985       498793     65536.00
    1690.623     0.999986       498794     72817.78
    1690.623     0.999988       498794     81920.00
    1692.671     0.999989       498797     93622.86
    1692.671     0.999991       498797    109226.67
    1692.671     0.999992       498797    131072.00
    1692.671     0.999993       498797    145635.56
    1692.671     0.999994       498797    163840.00
    1699.839     0.999995       498800    187245.71
    1699.839     1.000000       498800          inf
#[Mean    =       80.993, StdDeviation   =      274.148]
#[Max     =     1698.816, Total count    =       498800]
#[Buckets =           27, SubBuckets     =         2048]
----------------------------------------------------------
  597069 requests in 1.00m, 92.24MB read
Requests/sec:   9950.94
Transfer/sec:      1.54MB
-------------------------------------------
wrk -t4 -c100 -R12000 -d60 -L http://localhost:8081
Running 1m test @ http://localhost:8081
  4 threads and 100 connections
  Thread calibration: mean lat.: 2.337ms, rate sampling interval: 10ms
  Thread calibration: mean lat.: 2.309ms, rate sampling interval: 10ms
  Thread calibration: mean lat.: 2.366ms, rate sampling interval: 10ms
  Thread calibration: mean lat.: 2.462ms, rate sampling interval: 10ms
  Thread Stats   Avg      Stdev     Max   +/- Stdev
    Latency    32.49ms  135.52ms   1.24s    94.83%
    Req/Sec     3.19k     1.43k   24.70k    81.55%
  Latency Distribution (HdrHistogram - Recorded Latency)
 50.000%    1.40ms
 75.000%    2.38ms
 90.000%   17.09ms
 99.000%  862.72ms
 99.900%    1.13s 
 99.990%    1.22s 
 99.999%    1.23s 
100.000%    1.24s 

  Detailed Percentile spectrum:
       Value   Percentile   TotalCount 1/(1-Percentile)

       0.094     0.000000            1         1.00
       0.593     0.100000        59913         1.11
       0.811     0.200000       119754         1.25
       1.004     0.300000       179784         1.43
       1.196     0.400000       239411         1.67
       1.401     0.500000       299289         2.00
       1.512     0.550000       329199         2.22
       1.633     0.600000       359169         2.50
       1.776     0.650000       389088         2.86
       1.972     0.700000       419062         3.33
       2.375     0.750000       448873         4.00
       3.003     0.775000       463855         4.44
       4.079     0.800000       478811         5.00
       5.451     0.825000       493777         5.71
       7.363     0.850000       508720         6.67
      10.455     0.875000       523692         8.00
      13.055     0.887500       531186         8.89
      17.087     0.900000       538670        10.00
      25.215     0.912500       546130        11.43
      43.519     0.925000       553620        13.33
      91.199     0.937500       561090        16.00
     131.327     0.943750       564835        17.78
     186.751     0.950000       568574        20.00
     248.831     0.956250       572313        22.86
     310.783     0.962500       576060        26.67
     385.791     0.968750       579804        32.00
     419.583     0.971875       581666        35.56
     455.679     0.975000       583535        40.00
     518.143     0.978125       585402        45.71
     588.799     0.981250       587279        53.33
     672.767     0.984375       589146        64.00
     723.455     0.985938       590083        71.11
     766.975     0.987500       591017        80.00
     828.927     0.989062       591948        91.43
     882.687     0.990625       592892       106.67
     924.159     0.992188       593833       128.00
     941.567     0.992969       594294       142.22
     964.095     0.993750       594758       160.00
     989.183     0.994531       595226       182.86
    1003.519     0.995313       595704       213.33
    1019.391     0.996094       596162       256.00
    1030.143     0.996484       596397       284.44
    1046.015     0.996875       596625       320.00
    1062.911     0.997266       596867       365.71
    1083.391     0.997656       597107       426.67
    1097.727     0.998047       597340       512.00
    1104.895     0.998242       597443       568.89
    1112.063     0.998437       597581       640.00
    1117.183     0.998633       597677       731.43
    1122.303     0.998828       597801       853.33
    1130.495     0.999023       597921      1024.00
    1134.591     0.999121       597973      1137.78
    1142.783     0.999219       598028      1280.00
    1157.119     0.999316       598101      1462.86
    1170.431     0.999414       598147      1706.67
    1190.911     0.999512       598205      2048.00
    1199.103     0.999561       598238      2275.56
    1203.199     0.999609       598267      2560.00
    1205.247     0.999658       598291      2925.71
    1208.319     0.999707       598320      3413.33
    1211.391     0.999756       598354      4096.00
    1212.415     0.999780       598364      4551.11
    1214.463     0.999805       598381      5120.00
    1216.511     0.999829       598393      5851.43
    1218.559     0.999854       598410      6826.67
    1219.583     0.999878       598426      8192.00
    1220.607     0.999890       598431      9102.22
    1221.631     0.999902       598442     10240.00
    1222.655     0.999915       598449     11702.86
    1223.679     0.999927       598451     13653.33
    1225.727     0.999939       598461     16384.00
    1226.751     0.999945       598467     18204.44
    1226.751     0.999951       598467     20480.00
    1227.775     0.999957       598475     23405.71
    1227.775     0.999963       598475     27306.67
    1229.823     0.999969       598480     32768.00
    1229.823     0.999973       598480     36408.89
    1229.823     0.999976       598480     40960.00
    1230.847     0.999979       598483     46811.43
    1232.895     0.999982       598484     54613.33
    1233.919     0.999985       598485     65536.00
    1234.943     0.999986       598489     72817.78
    1234.943     0.999988       598489     81920.00
    1234.943     0.999989       598489     93622.86
    1234.943     0.999991       598489    109226.67
    1235.967     0.999992       598490    131072.00
    1235.967     0.999993       598490    145635.56
    1236.991     0.999994       598491    163840.00
    1236.991     0.999995       598491    187245.71
    1239.039     0.999995       598493    218453.33
    1239.039     0.999996       598493    262144.00
    1239.039     0.999997       598493    291271.11
    1239.039     0.999997       598493    327680.00
    1239.039     0.999997       598493    374491.43
    1239.039     0.999998       598493    436906.67
    1239.039     0.999998       598493    524288.00
    1239.039     0.999998       598493    582542.22
    1244.159     0.999998       598494    655360.00
    1244.159     1.000000       598494          inf
#[Mean    =       32.486, StdDeviation   =      135.517]
#[Max     =     1243.136, Total count    =       598494]
#[Buckets =           27, SubBuckets     =         2048]
----------------------------------------------------------
  716467 requests in 1.00m, 110.69MB read
Requests/sec:  11941.22
Transfer/sec:      1.84MB
-------------------------------------------
wrk -t4 -c100 -R14000 -d60 -L http://localhost:8081
Running 1m test @ http://localhost:8081
  4 threads and 100 connections
  Thread calibration: mean lat.: 3.669ms, rate sampling interval: 16ms
  Thread calibration: mean lat.: 3.575ms, rate sampling interval: 14ms
  Thread calibration: mean lat.: 3.925ms, rate sampling interval: 16ms
  Thread calibration: mean lat.: 3.701ms, rate sampling interval: 16ms
  Thread Stats   Avg      Stdev     Max   +/- Stdev
    Latency   576.95ms    1.15s    4.13s    84.14%
    Req/Sec     3.69k     2.62k   31.00k    80.63%
  Latency Distribution (HdrHistogram - Recorded Latency)
 50.000%    2.24ms
 75.000%  250.49ms
 90.000%    2.85s 
 99.000%    3.97s 
 99.900%    4.10s 
 99.990%    4.12s 
 99.999%    4.13s 
100.000%    4.14s 

  Detailed Percentile spectrum:
       Value   Percentile   TotalCount 1/(1-Percentile)

       0.093     0.000000            1         1.00
       0.750     0.100000        69942         1.11
       1.046     0.200000       139853         1.25
       1.331     0.300000       209502         1.43
       1.663     0.400000       279298         1.67
       2.245     0.500000       349085         2.00
       3.281     0.550000       384004         2.22
       5.695     0.600000       418907         2.50
      10.767     0.650000       453815         2.86
      32.383     0.700000       488715         3.33
     250.495     0.750000       523630         4.00
     582.655     0.775000       541091         4.44
    1007.615     0.800000       558548         5.00
    1372.159     0.825000       576016         5.71
    1911.807     0.850000       593451         6.67
    2424.831     0.875000       610908         8.00
    2668.543     0.887500       619675         8.89
    2852.863     0.900000       628447        10.00
    2994.175     0.912500       637117        11.43
    3149.823     0.925000       645835        13.33
    3287.039     0.937500       654664        16.00
    3387.391     0.943750       658925        17.78
    3479.551     0.950000       663327        20.00
    3622.911     0.956250       667695        22.86
    3735.551     0.962500       672024        26.67
    3801.087     0.968750       676426        32.00
    3827.711     0.971875       678565        35.56
    3850.239     0.975000       680896        40.00
    3872.767     0.978125       683063        45.71
    3893.247     0.981250       685103        53.33
    3913.727     0.984375       687316        64.00
    3923.967     0.985938       688364        71.11
    3940.351     0.987500       689512        80.00
    3958.783     0.989062       690622        91.43
    3977.215     0.990625       691774       106.67
    3987.455     0.992188       692729       128.00
    3995.647     0.992969       693341       142.22
    4003.839     0.993750       693889       160.00
    4012.031     0.994531       694417       182.86
    4020.223     0.995313       694947       213.33
    4032.511     0.996094       695500       256.00
    4038.655     0.996484       695721       284.44
    4044.799     0.996875       696003       320.00
    4050.943     0.997266       696260       365.71
    4061.183     0.997656       696568       426.67
    4071.423     0.998047       696820       512.00
    4077.567     0.998242       696982       568.89
    4083.711     0.998437       697112       640.00
    4087.807     0.998633       697238       731.43
    4091.903     0.998828       697362       853.33
    4095.999     0.999023       697495      1024.00
    4098.047     0.999121       697563      1137.78
    4100.095     0.999219       697635      1280.00
    4102.143     0.999316       697694      1462.86
    4106.239     0.999414       697772      1706.67
    4110.335     0.999512       697837      2048.00
    4112.383     0.999561       697873      2275.56
    4114.431     0.999609       697916      2560.00
    4116.479     0.999658       697958      2925.71
    4118.527     0.999707       698006      3413.33
    4118.527     0.999756       698006      4096.00
    4120.575     0.999780       698046      4551.11
    4120.575     0.999805       698046      5120.00
    4120.575     0.999829       698046      5851.43
    4122.623     0.999854       698075      6826.67
    4124.671     0.999878       698096      8192.00
    4124.671     0.999890       698096      9102.22
    4124.671     0.999902       698096     10240.00
    4126.719     0.999915       698118     11702.86
    4126.719     0.999927       698118     13653.33
    4128.767     0.999939       698132     16384.00
    4128.767     0.999945       698132     18204.44
    4128.767     0.999951       698132     20480.00
    4130.815     0.999957       698147     23405.71
    4130.815     0.999963       698147     27306.67
    4130.815     0.999969       698147     32768.00
    4130.815     0.999973       698147     36408.89
    4130.815     0.999976       698147     40960.00
    4132.863     0.999979       698153     46811.43
    4132.863     0.999982       698153     54613.33
    4132.863     0.999985       698153     65536.00
    4134.911     0.999986       698159     72817.78
    4134.911     0.999988       698159     81920.00
    4134.911     0.999989       698159     93622.86
    4134.911     0.999991       698159    109226.67
    4134.911     0.999992       698159    131072.00
    4134.911     0.999993       698159    145635.56
    4134.911     0.999994       698159    163840.00
    4136.959     0.999995       698163    187245.71
    4136.959     1.000000       698163          inf
#[Mean    =      576.953, StdDeviation   =     1148.105]
#[Max     =     4134.912, Total count    =       698163]
#[Buckets =           27, SubBuckets     =         2048]
----------------------------------------------------------
  835789 requests in 1.00m, 129.13MB read
Requests/sec:  13929.89
Transfer/sec:      2.15MB
-------------------------------------------
wrk -t4 -c100 -R16000 -d60 -L http://localhost:8081
Running 1m test @ http://localhost:8081
  4 threads and 100 connections
  Thread calibration: mean lat.: 1.901ms, rate sampling interval: 10ms
  Thread calibration: mean lat.: 1.899ms, rate sampling interval: 10ms
  Thread calibration: mean lat.: 1.875ms, rate sampling interval: 10ms
  Thread calibration: mean lat.: 1.861ms, rate sampling interval: 10ms
  Thread Stats   Avg      Stdev     Max   +/- Stdev
    Latency   354.56ms  691.96ms   2.93s    82.75%
    Req/Sec     4.32k     2.92k   42.00k    79.03%
  Latency Distribution (HdrHistogram - Recorded Latency)
 50.000%    2.36ms
 75.000%   86.14ms
 90.000%    1.69s 
 99.000%    2.46s 
 99.900%    2.75s 
 99.990%    2.90s 
 99.999%    2.92s 
100.000%    2.93s 

  Detailed Percentile spectrum:
       Value   Percentile   TotalCount 1/(1-Percentile)

       0.088     0.000000            1         1.00
       0.744     0.100000        79981         1.11
       1.066     0.200000       159714         1.25
       1.391     0.300000       239573         1.43
       1.749     0.400000       319318         1.67
       2.357     0.500000       399058         2.00
       3.351     0.550000       438938         2.22
       5.351     0.600000       478818         2.50
       9.231     0.650000       518701         2.86
      20.015     0.700000       558616         3.33
      86.143     0.750000       598493         4.00
     358.143     0.775000       618437         4.44
     797.695     0.800000       638415         5.00
    1029.119     0.825000       658346         5.71
    1204.223     0.850000       678322         6.67
    1485.823     0.875000       698248         8.00
    1595.391     0.887500       708264         8.89
    1689.599     0.900000       718325        10.00
    1767.423     0.912500       728184        11.43
    1851.391     0.925000       738175        13.33
    1936.383     0.937500       748216        16.00
    1977.343     0.943750       753231        17.78
    2017.279     0.950000       758115        20.00
    2059.263     0.956250       763095        22.86
    2105.343     0.962500       768239        26.67
    2162.687     0.968750       773110        32.00
    2193.407     0.971875       775650        35.56
    2220.031     0.975000       778144        40.00
    2252.799     0.978125       780652        45.71
    2289.663     0.981250       783048        53.33
    2330.623     0.984375       785519        64.00
    2353.151     0.985938       786800        71.11
    2381.823     0.987500       788006        80.00
    2428.927     0.989062       789252        91.43
    2469.887     0.990625       790506       106.67
    2510.847     0.992188       791791       128.00
    2527.231     0.992969       792394       142.22
    2553.855     0.993750       792999       160.00
    2594.815     0.994531       793631       182.86
    2619.391     0.995313       794266       213.33
    2648.063     0.996094       794890       256.00
    2664.447     0.996484       795174       284.44
    2678.783     0.996875       795508       320.00
    2689.023     0.997266       795804       365.71
    2697.215     0.997656       796127       426.67
    2707.455     0.998047       796463       512.00
    2711.551     0.998242       796600       568.89
    2717.695     0.998437       796766       640.00
    2725.887     0.998633       796916       731.43
    2736.127     0.998828       797057       853.33
    2754.559     0.999023       797206      1024.00
    2764.799     0.999121       797278      1137.78
    2777.087     0.999219       797371      1280.00
    2791.423     0.999316       797433      1462.86
    2809.855     0.999414       797515      1706.67
    2822.143     0.999512       797589      2048.00
    2828.287     0.999561       797644      2275.56
    2832.383     0.999609       797673      2560.00
    2842.623     0.999658       797711      2925.71
    2852.863     0.999707       797754      3413.33
    2861.055     0.999756       797786      4096.00
    2867.199     0.999780       797807      4551.11
    2873.343     0.999805       797830      5120.00
    2877.439     0.999829       797846      5851.43
    2883.583     0.999854       797864      6826.67
    2891.775     0.999878       797887      8192.00
    2895.871     0.999890       797899      9102.22
    2897.919     0.999902       797902     10240.00
    2899.967     0.999915       797911     11702.86
    2906.111     0.999927       797922     13653.33
    2910.207     0.999939       797931     16384.00
    2912.255     0.999945       797936     18204.44
    2914.303     0.999951       797942     20480.00
    2916.351     0.999957       797949     23405.71
    2916.351     0.999963       797949     27306.67
    2918.399     0.999969       797961     32768.00
    2918.399     0.999973       797961     36408.89
    2918.399     0.999976       797961     40960.00
    2918.399     0.999979       797961     46811.43
    2920.447     0.999982       797969     54613.33
    2920.447     0.999985       797969     65536.00
    2920.447     0.999986       797969     72817.78
    2920.447     0.999988       797969     81920.00
    2922.495     0.999989       797971     93622.86
    2922.495     0.999991       797971    109226.67
    2924.543     0.999992       797973    131072.00
    2924.543     0.999993       797973    145635.56
    2928.639     0.999994       797974    163840.00
    2928.639     0.999995       797974    187245.71
    2930.687     0.999995       797976    218453.33
    2930.687     0.999996       797976    262144.00
    2930.687     0.999997       797976    291271.11
    2930.687     0.999997       797976    327680.00
    2930.687     0.999997       797976    374491.43
    2932.735     0.999998       797978    436906.67
    2932.735     1.000000       797978          inf
#[Mean    =      354.560, StdDeviation   =      691.960]
#[Max     =     2930.688, Total count    =       797978]
#[Buckets =           27, SubBuckets     =         2048]
----------------------------------------------------------
  959026 requests in 1.00m, 148.16MB read
Requests/sec:  15983.71
Transfer/sec:      2.47MB
-------------------------------------------
wrk -t4 -c100 -R18000 -d60 -L http://localhost:8081
Running 1m test @ http://localhost:8081
  4 threads and 100 connections
  Thread calibration: mean lat.: 1.596ms, rate sampling interval: 10ms
  Thread calibration: mean lat.: 1.708ms, rate sampling interval: 10ms
  Thread calibration: mean lat.: 1.642ms, rate sampling interval: 10ms
  Thread calibration: mean lat.: 1.601ms, rate sampling interval: 10ms
  Thread Stats   Avg      Stdev     Max   +/- Stdev
    Latency    34.12ms  157.66ms   1.20s    95.59%
    Req/Sec     4.79k     1.89k   29.10k    85.21%
  Latency Distribution (HdrHistogram - Recorded Latency)
 50.000%    1.39ms
 75.000%    2.10ms
 90.000%    8.31ms
 99.000%  982.53ms
 99.900%    1.17s 
 99.990%    1.19s 
 99.999%    1.20s 
100.000%    1.20s 

  Detailed Percentile spectrum:
       Value   Percentile   TotalCount 1/(1-Percentile)

       0.064     0.000000            1         1.00
       0.593     0.100000        90005         1.11
       0.805     0.200000       179914         1.25
       0.998     0.300000       269675         1.43
       1.190     0.400000       359428         1.67
       1.395     0.500000       449229         2.00
       1.503     0.550000       493860         2.22
       1.617     0.600000       538789         2.50
       1.742     0.650000       583784         2.86
       1.891     0.700000       628470         3.33
       2.095     0.750000       673416         4.00
       2.249     0.775000       695779         4.44
       2.513     0.800000       718262         5.00
       3.227     0.825000       740644         5.71
       4.431     0.850000       763113         6.67
       5.979     0.875000       785519         8.00
       7.011     0.887500       796731         8.89
       8.311     0.900000       807962        10.00
      10.047     0.912500       819167        11.43
      12.815     0.925000       830413        13.33
      17.855     0.937500       841607        16.00
      23.135     0.943750       847222        17.78
      43.391     0.950000       852828        20.00
     196.863     0.956250       858445        22.86
     342.271     0.962500       864051        26.67
     501.503     0.968750       869659        32.00
     597.503     0.971875       872480        35.56
     666.111     0.975000       875287        40.00
     732.671     0.978125       878081        45.71
     792.575     0.981250       880884        53.33
     863.743     0.984375       883693        64.00
     894.975     0.985938       885099        71.11
     930.815     0.987500       886502        80.00
     963.071     0.989062       887913        91.43
     996.863     0.990625       889298       106.67
    1025.535     0.992188       890709       128.00
    1039.359     0.992969       891401       142.22
    1059.839     0.993750       892135       160.00
    1080.319     0.994531       892809       182.86
    1099.775     0.995313       893528       213.33
    1115.135     0.996094       894236       256.00
    1121.279     0.996484       894578       284.44
    1131.519     0.996875       894911       320.00
    1140.735     0.997266       895287       365.71
    1146.879     0.997656       895638       426.67
    1151.999     0.998047       895967       512.00
    1156.095     0.998242       896177       568.89
    1159.167     0.998437       896356       640.00
    1161.215     0.998633       896495       731.43
    1164.287     0.998828       896704       853.33
    1167.359     0.999023       896892      1024.00
    1168.383     0.999121       896942      1137.78
    1170.431     0.999219       897016      1280.00
    1173.503     0.999316       897112      1462.86
    1176.575     0.999414       897206      1706.67
    1179.647     0.999512       897287      2048.00
    1181.695     0.999561       897333      2275.56
    1182.719     0.999609       897365      2560.00
    1184.767     0.999658       897423      2925.71
    1186.815     0.999707       897479      3413.33
    1187.839     0.999756       897508      4096.00
    1188.863     0.999780       897528      4551.11
    1189.887     0.999805       897546      5120.00
    1190.911     0.999829       897571      5851.43
    1191.935     0.999854       897597      6826.67
    1192.959     0.999878       897617      8192.00
    1192.959     0.999890       897617      9102.22
    1193.983     0.999902       897642     10240.00
    1193.983     0.999915       897642     11702.86
    1195.007     0.999927       897667     13653.33
    1195.007     0.999939       897667     16384.00
    1195.007     0.999945       897667     18204.44
    1196.031     0.999951       897686     20480.00
    1196.031     0.999957       897686     23405.71
    1196.031     0.999963       897686     27306.67
    1196.031     0.999969       897686     32768.00
    1197.055     0.999973       897696     36408.89
    1197.055     0.999976       897696     40960.00
    1197.055     0.999979       897696     46811.43
    1197.055     0.999982       897696     54613.33
    1198.079     0.999985       897698     65536.00
    1199.103     0.999986       897704     72817.78
    1199.103     0.999988       897704     81920.00
    1199.103     0.999989       897704     93622.86
    1199.103     0.999991       897704    109226.67
    1200.127     0.999992       897706    131072.00
    1200.127     0.999993       897706    145635.56
    1200.127     0.999994       897706    163840.00
    1201.151     0.999995       897708    187245.71
    1201.151     0.999995       897708    218453.33
    1201.151     0.999996       897708    262144.00
    1201.151     0.999997       897708    291271.11
    1202.175     0.999997       897709    327680.00
    1202.175     0.999997       897709    374491.43
    1202.175     0.999998       897709    436906.67
    1203.199     0.999998       897711    524288.00
    1203.199     1.000000       897711          inf
#[Mean    =       34.121, StdDeviation   =      157.662]
#[Max     =     1202.176, Total count    =       897711]
#[Buckets =           27, SubBuckets     =         2048]
----------------------------------------------------------
  1078870 requests in 1.00m, 166.68MB read
Requests/sec:  17981.35
Transfer/sec:      2.78MB
-------------------------------------------
wrk -t4 -c100 -R20000 -d60 -L http://localhost:8081
Running 1m test @ http://localhost:8081
  4 threads and 100 connections
  Thread calibration: mean lat.: 3.990ms, rate sampling interval: 19ms
  Thread calibration: mean lat.: 3.975ms, rate sampling interval: 18ms
  Thread calibration: mean lat.: 4.055ms, rate sampling interval: 18ms
  Thread calibration: mean lat.: 3.650ms, rate sampling interval: 16ms
  Thread Stats   Avg      Stdev     Max   +/- Stdev
    Latency   259.95ms  643.67ms   3.15s    87.58%
    Req/Sec     5.22k     3.05k   35.47k    79.97%
  Latency Distribution (HdrHistogram - Recorded Latency)
 50.000%    2.12ms
 75.000%   17.87ms
 90.000%    1.39s 
 99.000%    2.73s 
 99.900%    3.06s 
 99.990%    3.13s 
 99.999%    3.15s 
100.000%    3.15s 

  Detailed Percentile spectrum:
       Value   Percentile   TotalCount 1/(1-Percentile)

       0.099     0.000000            1         1.00
       0.763     0.100000        99834         1.11
       1.035     0.200000       199715         1.25
       1.311     0.300000       299300         1.43
       1.646     0.400000       399188         1.67
       2.115     0.500000       498934         2.00
       2.541     0.550000       548789         2.22
       3.613     0.600000       598536         2.50
       5.779     0.650000       648400         2.86
       9.663     0.700000       698289         3.33
      17.871     0.750000       748143         4.00
      27.471     0.775000       773080         4.44
      53.343     0.800000       798016         5.00
     167.551     0.825000       822942         5.71
     369.407     0.850000       847903         6.67
     880.639     0.875000       872818         8.00
    1144.831     0.887500       885322         8.89
    1387.519     0.900000       897759        10.00
    1552.383     0.912500       910266        11.43
    1684.479     0.925000       922743        13.33
    1793.023     0.937500       935173        16.00
    1864.703     0.943750       941428        17.78
    1952.767     0.950000       947626        20.00
    2033.663     0.956250       953876        22.86
    2117.631     0.962500       960211        26.67
    2232.319     0.968750       966363        32.00
    2301.951     0.971875       969525        35.56
    2369.535     0.975000       972600        40.00
    2461.695     0.978125       975710        45.71
    2543.615     0.981250       978842        53.33
    2615.295     0.984375       981978        64.00
    2650.111     0.985938       983527        71.11
    2684.927     0.987500       985061        80.00
    2715.647     0.989062       986679        91.43
    2746.367     0.990625       988202       106.67
    2779.135     0.992188       989749       128.00
    2797.567     0.992969       990584       142.22
    2815.999     0.993750       991361       160.00
    2836.479     0.994531       992073       182.86
    2875.391     0.995313       992842       213.33
    2914.303     0.996094       993646       256.00
    2930.687     0.996484       994020       284.44
    2947.071     0.996875       994396       320.00
    2967.551     0.997266       994803       365.71
    2988.031     0.997656       995205       426.67
    3004.415     0.998047       995560       512.00
    3014.655     0.998242       995776       568.89
    3026.943     0.998437       995978       640.00
    3035.135     0.998633       996172       731.43
    3047.423     0.998828       996342       853.33
    3061.759     0.999023       996569      1024.00
    3065.855     0.999121       996627      1137.78
    3074.047     0.999219       996744      1280.00
    3080.191     0.999316       996849      1462.86
    3086.335     0.999414       996942      1706.67
    3092.479     0.999512       997029      2048.00
    3096.575     0.999561       997073      2275.56
    3100.671     0.999609       997122      2560.00
    3104.767     0.999658       997170      2925.71
    3110.911     0.999707       997233      3413.33
    3115.007     0.999756       997274      4096.00
    3117.055     0.999780       997299      4551.11
    3119.103     0.999805       997308      5120.00
    3123.199     0.999829       997335      5851.43
    3127.295     0.999854       997371      6826.67
    3129.343     0.999878       997387      8192.00
    3131.391     0.999890       997400      9102.22
    3133.439     0.999902       997415     10240.00
    3133.439     0.999915       997415     11702.86
    3135.487     0.999927       997432     13653.33
    3137.535     0.999939       997444     16384.00
    3139.583     0.999945       997460     18204.44
    3139.583     0.999951       997460     20480.00
    3139.583     0.999957       997460     23405.71
    3141.631     0.999963       997476     27306.67
    3141.631     0.999969       997476     32768.00
    3141.631     0.999973       997476     36408.89
    3141.631     0.999976       997476     40960.00
    3143.679     0.999979       997488     46811.43
    3143.679     0.999982       997488     54613.33
    3143.679     0.999985       997488     65536.00
    3143.679     0.999986       997488     72817.78
    3143.679     0.999988       997488     81920.00
    3145.727     0.999989       997498     93622.86
    3145.727     0.999991       997498    109226.67
    3145.727     0.999992       997498    131072.00
    3145.727     0.999993       997498    145635.56
    3145.727     0.999994       997498    163840.00
    3145.727     0.999995       997498    187245.71
    3145.727     0.999995       997498    218453.33
    3145.727     0.999996       997498    262144.00
    3145.727     0.999997       997498    291271.11
    3145.727     0.999997       997498    327680.00
    3145.727     0.999997       997498    374491.43
    3145.727     0.999998       997498    436906.67
    3147.775     0.999998       997500    524288.00
    3147.775     1.000000       997500          inf
#[Mean    =      259.954, StdDeviation   =      643.671]
#[Max     =     3145.728, Total count    =       997500]
#[Buckets =           27, SubBuckets     =         2048]
----------------------------------------------------------
  1194094 requests in 1.00m, 184.48MB read
Requests/sec:  19900.67
Transfer/sec:      3.07MB
-------------------------------------------
