wrk -t4 -c100 -R4000 -d60 -L http://localhost:8081
Running 1m test @ http://localhost:8081
  4 threads and 100 connections
  Thread calibration: mean lat.: 1.134ms, rate sampling interval: 10ms
  Thread calibration: mean lat.: 1.160ms, rate sampling interval: 10ms
  Thread calibration: mean lat.: 1.130ms, rate sampling interval: 10ms
  Thread calibration: mean lat.: 1.112ms, rate sampling interval: 10ms
  Thread Stats   Avg      Stdev     Max   +/- Stdev
    Latency     9.47ms   42.28ms 429.31ms   96.66%
    Req/Sec     1.06k   413.46     6.70k    85.18%
  Latency Distribution (HdrHistogram - Recorded Latency)
 50.000%    1.24ms
 75.000%    1.76ms
 90.000%    7.32ms
 99.000%  291.33ms
 99.900%  380.16ms
 99.990%  413.95ms
 99.999%  424.70ms
100.000%  429.57ms

  Detailed Percentile spectrum:
       Value   Percentile   TotalCount 1/(1-Percentile)

       0.098     0.000000            1         1.00
       0.566     0.100000        19990         1.11
       0.755     0.200000        39931         1.25
       0.920     0.300000        59910         1.43
       1.080     0.400000        79894         1.67
       1.240     0.500000        99761         2.00
       1.325     0.550000       109817         2.22
       1.411     0.600000       119715         2.50
       1.507     0.650000       129676         2.86
       1.619     0.700000       139681         3.33
       1.760     0.750000       149621         4.00
       1.861     0.775000       154602         4.44
       2.015     0.800000       159579         5.00
       2.379     0.825000       164568         5.71
       3.405     0.850000       169556         6.67
       4.999     0.875000       174539         8.00
       6.059     0.887500       177033         8.89
       7.315     0.900000       179527        10.00
       9.023     0.912500       182031        11.43
      11.503     0.925000       184527        13.33
      15.543     0.937500       187007        16.00
      18.239     0.943750       188259        17.78
      22.655     0.950000       189500        20.00
      28.511     0.956250       190748        22.86
      39.007     0.962500       191994        26.67
      63.071     0.968750       193244        32.00
      83.519     0.971875       193866        35.56
     109.375     0.975000       194487        40.00
     146.431     0.978125       195110        45.71
     183.935     0.981250       195733        53.33
     228.223     0.984375       196359        64.00
     251.903     0.985938       196669        71.11
     269.055     0.987500       196984        80.00
     282.367     0.989062       197294        91.43
     296.703     0.990625       197603       106.67
     309.503     0.992188       197918       128.00
     314.623     0.992969       198076       142.22
     319.999     0.993750       198232       160.00
     325.119     0.994531       198386       182.86
     331.519     0.995313       198549       213.33
     339.711     0.996094       198694       256.00
     343.807     0.996484       198778       284.44
     348.671     0.996875       198853       320.00
     353.535     0.997266       198928       365.71
     357.887     0.997656       199006       426.67
     364.543     0.998047       199085       512.00
     366.847     0.998242       199124       568.89
     369.919     0.998437       199165       640.00
     373.503     0.998633       199205       731.43
     376.831     0.998828       199240       853.33
     380.671     0.999023       199283      1024.00
     381.695     0.999121       199300      1137.78
     383.487     0.999219       199320      1280.00
     386.303     0.999316       199338      1462.86
     387.327     0.999414       199357      1706.67
     391.167     0.999512       199377      2048.00
     391.935     0.999561       199388      2275.56
     392.959     0.999609       199397      2560.00
     396.543     0.999658       199406      2925.71
     397.311     0.999707       199415      3413.33
     400.895     0.999756       199425      4096.00
     401.919     0.999780       199430      4551.11
     402.431     0.999805       199435      5120.00
     405.503     0.999829       199439      5851.43
     406.527     0.999854       199444      6826.67
     411.135     0.999878       199450      8192.00
     412.415     0.999890       199452      9102.22
     414.207     0.999902       199454     10240.00
     414.719     0.999915       199457     11702.86
     414.975     0.999927       199459     13653.33
     416.255     0.999939       199462     16384.00
     416.511     0.999945       199463     18204.44
     416.767     0.999951       199464     20480.00
     417.023     0.999957       199465     23405.71
     419.071     0.999963       199466     27306.67
     419.583     0.999969       199467     32768.00
     419.839     0.999973       199468     36408.89
     420.863     0.999976       199470     40960.00
     420.863     0.999979       199470     46811.43
     420.863     0.999982       199470     54613.33
     420.863     0.999985       199470     65536.00
     424.703     0.999986       199471     72817.78
     424.703     0.999988       199471     81920.00
     424.703     0.999989       199471     93622.86
     424.959     0.999991       199472    109226.67
     424.959     0.999992       199472    131072.00
     424.959     0.999993       199472    145635.56
     424.959     0.999994       199472    163840.00
     424.959     0.999995       199472    187245.71
     429.567     0.999995       199473    218453.33
     429.567     1.000000       199473          inf
#[Mean    =        9.466, StdDeviation   =       42.279]
#[Max     =      429.312, Total count    =       199473]
#[Buckets =           27, SubBuckets     =         2048]
----------------------------------------------------------
  239784 requests in 1.00m, 37.05MB read
Requests/sec:   3996.42
Transfer/sec:    632.25KB
-------------------------------------------
wrk -t4 -c100 -R5000 -d60 -L http://localhost:8081
Running 1m test @ http://localhost:8081
  4 threads and 100 connections
  Thread calibration: mean lat.: 5.134ms, rate sampling interval: 27ms
  Thread calibration: mean lat.: 4.965ms, rate sampling interval: 25ms
  Thread calibration: mean lat.: 5.529ms, rate sampling interval: 28ms
  Thread calibration: mean lat.: 4.963ms, rate sampling interval: 26ms
  Thread Stats   Avg      Stdev     Max   +/- Stdev
    Latency     5.56ms   18.58ms 296.45ms   95.52%
    Req/Sec     1.28k   308.05     4.93k    86.14%
  Latency Distribution (HdrHistogram - Recorded Latency)
 50.000%    1.33ms
 75.000%    1.99ms
 90.000%    8.67ms
 99.000%  105.66ms
 99.900%  214.01ms
 99.990%  273.15ms
 99.999%  291.33ms
100.000%  296.70ms

  Detailed Percentile spectrum:
       Value   Percentile   TotalCount 1/(1-Percentile)

       0.089     0.000000            1         1.00
       0.610     0.100000        25032         1.11
       0.806     0.200000        49858         1.25
       0.974     0.300000        74890         1.43
       1.136     0.400000        99851         1.67
       1.325     0.500000       124720         2.00
       1.424     0.550000       137205         2.22
       1.523     0.600000       149561         2.50
       1.634     0.650000       162085         2.86
       1.770     0.700000       174493         3.33
       1.987     0.750000       186988         4.00
       2.193     0.775000       193226         4.44
       2.729     0.800000       199423         5.00
       3.685     0.825000       205665         5.71
       4.871     0.850000       211896         6.67
       6.363     0.875000       218120         8.00
       7.399     0.887500       221228         8.89
       8.671     0.900000       224360        10.00
      10.319     0.912500       227462        11.43
      12.535     0.925000       230574        13.33
      15.663     0.937500       233693        16.00
      18.047     0.943750       235249        17.78
      21.007     0.950000       236806        20.00
      24.799     0.956250       238367        22.86
      29.967     0.962500       239922        26.67
      38.207     0.968750       241479        32.00
      43.327     0.971875       242260        35.56
      49.471     0.975000       243037        40.00
      57.439     0.978125       243816        45.71
      68.031     0.981250       244598        53.33
      81.279     0.984375       245379        64.00
      87.999     0.985938       245763        71.11
      95.295     0.987500       246154        80.00
     101.695     0.989062       246547        91.43
     108.543     0.990625       246941       106.67
     116.159     0.992188       247325       128.00
     121.215     0.992969       247519       142.22
     126.527     0.993750       247711       160.00
     133.247     0.994531       247906       182.86
     142.207     0.995313       248102       213.33
     152.575     0.996094       248296       256.00
     158.719     0.996484       248392       284.44
     166.015     0.996875       248490       320.00
     174.975     0.997266       248587       365.71
     182.271     0.997656       248684       426.67
     189.311     0.998047       248783       512.00
     192.639     0.998242       248831       568.89
     198.527     0.998437       248882       640.00
     205.055     0.998633       248929       731.43
     209.791     0.998828       248976       853.33
     214.143     0.999023       249025      1024.00
     217.215     0.999121       249049      1137.78
     219.135     0.999219       249075      1280.00
     223.743     0.999316       249100      1462.86
     226.943     0.999414       249123      1706.67
     232.319     0.999512       249147      2048.00
     236.287     0.999561       249159      2275.56
     241.151     0.999609       249172      2560.00
     244.223     0.999658       249185      2925.71
     247.167     0.999707       249195      3413.33
     250.367     0.999756       249209      4096.00
     251.519     0.999780       249214      4551.11
     254.079     0.999805       249220      5120.00
     258.431     0.999829       249226      5851.43
     264.703     0.999854       249232      6826.67
     269.311     0.999878       249238      8192.00
     270.847     0.999890       249241      9102.22
     273.407     0.999902       249244     10240.00
     275.455     0.999915       249248     11702.86
     277.247     0.999927       249250     13653.33
     279.039     0.999939       249253     16384.00
     280.063     0.999945       249255     18204.44
     280.575     0.999951       249257     20480.00
     281.343     0.999957       249259     23405.71
     281.343     0.999963       249259     27306.67
     283.391     0.999969       249262     32768.00
     283.391     0.999973       249262     36408.89
     283.391     0.999976       249262     40960.00
     286.975     0.999979       249263     46811.43
     288.511     0.999982       249265     54613.33
     288.511     0.999985       249265     65536.00
     288.511     0.999986       249265     72817.78
     288.511     0.999988       249265     81920.00
     291.327     0.999989       249266     93622.86
     291.327     0.999991       249266    109226.67
     296.703     0.999992       249268    131072.00
     296.703     1.000000       249268          inf
#[Mean    =        5.556, StdDeviation   =       18.581]
#[Max     =      296.448, Total count    =       249268]
#[Buckets =           27, SubBuckets     =         2048]
----------------------------------------------------------
  299647 requests in 1.00m, 46.29MB read
Requests/sec:   4993.51
Transfer/sec:    789.99KB
-------------------------------------------
wrk -t4 -c100 -R6000 -d60 -L http://localhost:8081
Running 1m test @ http://localhost:8081
  4 threads and 100 connections
  Thread calibration: mean lat.: 1.503ms, rate sampling interval: 10ms
  Thread calibration: mean lat.: 1.487ms, rate sampling interval: 10ms
  Thread calibration: mean lat.: 1.490ms, rate sampling interval: 10ms
  Thread calibration: mean lat.: 1.509ms, rate sampling interval: 10ms
  Thread Stats   Avg      Stdev     Max   +/- Stdev
    Latency     2.99ms    9.65ms 191.36ms   95.72%
    Req/Sec     1.59k   524.48     9.00k    88.11%
  Latency Distribution (HdrHistogram - Recorded Latency)
 50.000%    1.17ms
 75.000%    1.61ms
 90.000%    4.10ms
 99.000%   43.04ms
 99.900%  134.78ms
 99.990%  170.88ms
 99.999%  188.80ms
100.000%  191.49ms

  Detailed Percentile spectrum:
       Value   Percentile   TotalCount 1/(1-Percentile)

       0.078     0.000000            1         1.00
       0.498     0.100000        30005         1.11
       0.691     0.200000        59869         1.25
       0.863     0.300000        89793         1.43
       1.021     0.400000       119825         1.67
       1.173     0.500000       149679         2.00
       1.250     0.550000       164744         2.22
       1.329     0.600000       179698         2.50
       1.413     0.650000       194656         2.86
       1.504     0.700000       209606         3.33
       1.614     0.750000       224465         4.00
       1.683     0.775000       232009         4.44
       1.768     0.800000       239440         5.00
       1.882     0.825000       246920         5.71
       2.063     0.850000       254399         6.67
       2.581     0.875000       261855         8.00
       3.267     0.887500       265590         8.89
       4.103     0.900000       269336        10.00
       5.099     0.912500       273072        11.43
       6.383     0.925000       276815        13.33
       8.087     0.937500       280553        16.00
       9.231     0.943750       282421        17.78
      10.631     0.950000       284295        20.00
      12.335     0.956250       286159        22.86
      14.295     0.962500       288034        26.67
      16.655     0.968750       289903        32.00
      18.127     0.971875       290835        35.56
      19.855     0.975000       291772        40.00
      22.047     0.978125       292708        45.71
      24.735     0.981250       293641        53.33
      28.591     0.984375       294576        64.00
      31.231     0.985938       295046        71.11
      34.303     0.987500       295512        80.00
      39.167     0.989062       295978        91.43
      45.791     0.990625       296446       106.67
      53.279     0.992188       296914       128.00
      58.111     0.992969       297148       142.22
      63.967     0.993750       297381       160.00
      70.527     0.994531       297615       182.86
      77.631     0.995313       297852       213.33
      87.039     0.996094       298083       256.00
      92.735     0.996484       298199       284.44
      99.519     0.996875       298316       320.00
     104.383     0.997266       298434       365.71
     108.991     0.997656       298551       426.67
     113.919     0.998047       298669       512.00
     116.543     0.998242       298726       568.89
     119.551     0.998437       298784       640.00
     123.903     0.998633       298842       731.43
     129.215     0.998828       298901       853.33
     135.295     0.999023       298961      1024.00
     137.471     0.999121       298988      1137.78
     139.391     0.999219       299018      1280.00
     142.207     0.999316       299047      1462.86
     144.639     0.999414       299077      1706.67
     147.711     0.999512       299107      2048.00
     148.991     0.999561       299120      2275.56
     150.527     0.999609       299135      2560.00
     152.575     0.999658       299149      2925.71
     154.111     0.999707       299165      3413.33
     157.183     0.999756       299178      4096.00
     158.207     0.999780       299188      4551.11
     158.463     0.999805       299193      5120.00
     160.511     0.999829       299200      5851.43
     163.199     0.999854       299208      6826.67
     165.503     0.999878       299215      8192.00
     168.831     0.999890       299219      9102.22
     170.879     0.999902       299222     10240.00
     173.183     0.999915       299226     11702.86
     175.487     0.999927       299230     13653.33
     178.047     0.999939       299233     16384.00
     178.815     0.999945       299235     18204.44
     180.607     0.999951       299237     20480.00
     181.247     0.999957       299240     23405.71
     181.631     0.999963       299241     27306.67
     181.759     0.999969       299242     32768.00
     183.039     0.999973       299243     36408.89
     183.551     0.999976       299244     40960.00
     183.679     0.999979       299245     46811.43
     187.263     0.999982       299246     54613.33
     188.287     0.999985       299247     65536.00
     188.287     0.999986       299247     72817.78
     188.799     0.999988       299248     81920.00
     188.799     0.999989       299248     93622.86
     190.335     0.999991       299249    109226.67
     190.335     0.999992       299249    131072.00
     190.335     0.999993       299249    145635.56
     190.975     0.999994       299250    163840.00
     190.975     0.999995       299250    187245.71
     190.975     0.999995       299250    218453.33
     190.975     0.999996       299250    262144.00
     190.975     0.999997       299250    291271.11
     191.487     0.999997       299251    327680.00
     191.487     1.000000       299251          inf
#[Mean    =        2.988, StdDeviation   =        9.651]
#[Max     =      191.360, Total count    =       299251]
#[Buckets =           27, SubBuckets     =         2048]
----------------------------------------------------------
  359679 requests in 1.00m, 55.57MB read
Requests/sec:   5994.54
Transfer/sec:      0.93MB
-------------------------------------------
wrk -t4 -c100 -R7000 -d60 -L http://localhost:8081
Running 1m test @ http://localhost:8081
  4 threads and 100 connections
  Thread calibration: mean lat.: 1.894ms, rate sampling interval: 10ms
  Thread calibration: mean lat.: 1.857ms, rate sampling interval: 10ms
  Thread calibration: mean lat.: 1.823ms, rate sampling interval: 10ms
  Thread calibration: mean lat.: 1.833ms, rate sampling interval: 10ms
  Thread Stats   Avg      Stdev     Max   +/- Stdev
    Latency     6.56ms   26.55ms 383.49ms   96.77%
    Req/Sec     1.87k   806.10    12.40k    82.98%
  Latency Distribution (HdrHistogram - Recorded Latency)
 50.000%    1.35ms
 75.000%    2.32ms
 90.000%    9.66ms
 99.000%  149.12ms
 99.900%  317.18ms
 99.990%  365.57ms
 99.999%  379.14ms
100.000%  383.74ms

  Detailed Percentile spectrum:
       Value   Percentile   TotalCount 1/(1-Percentile)

       0.091     0.000000            1         1.00
       0.552     0.100000        34952         1.11
       0.765     0.200000        69850         1.25
       0.964     0.300000       104888         1.43
       1.157     0.400000       139765         1.67
       1.353     0.500000       174631         2.00
       1.458     0.550000       192099         2.22
       1.571     0.600000       209544         2.50
       1.709     0.650000       227016         2.86
       1.911     0.700000       244398         3.33
       2.319     0.750000       261846         4.00
       2.845     0.775000       270583         4.44
       3.627     0.800000       279304         5.00
       4.603     0.825000       288032         5.71
       5.807     0.850000       296765         6.67
       7.387     0.875000       305494         8.00
       8.391     0.887500       309863         8.89
       9.663     0.900000       314238        10.00
      11.247     0.912500       318590        11.43
      13.367     0.925000       322940        13.33
      16.223     0.937500       327308        16.00
      18.127     0.943750       329498        17.78
      20.447     0.950000       331675        20.00
      23.391     0.956250       333856        22.86
      27.855     0.962500       336033        26.67
      34.303     0.968750       338225        32.00
      37.951     0.971875       339313        35.56
      41.951     0.975000       340400        40.00
      47.583     0.978125       341491        45.71
      58.495     0.981250       342578        53.33
      79.167     0.984375       343672        64.00
      95.295     0.985938       344217        71.11
     113.151     0.987500       344762        80.00
     132.095     0.989062       345306        91.43
     163.455     0.990625       345852       106.67
     191.103     0.992188       346400       128.00
     202.879     0.992969       346670       142.22
     216.191     0.993750       346946       160.00
     230.015     0.994531       347216       182.86
     241.791     0.995313       347488       213.33
     255.999     0.996094       347761       256.00
     262.911     0.996484       347897       284.44
     269.823     0.996875       348033       320.00
     276.735     0.997266       348176       365.71
     284.927     0.997656       348307       426.67
     294.399     0.998047       348444       512.00
     299.775     0.998242       348512       568.89
     304.127     0.998437       348581       640.00
     309.247     0.998633       348651       731.43
     313.599     0.998828       348719       853.33
     317.951     0.999023       348786      1024.00
     320.255     0.999121       348821      1137.78
     323.071     0.999219       348854      1280.00
     326.655     0.999316       348886      1462.86
     331.007     0.999414       348920      1706.67
     336.383     0.999512       348956      2048.00
     338.687     0.999561       348973      2275.56
     340.479     0.999609       348990      2560.00
     342.271     0.999658       349005      2925.71
     344.831     0.999707       349022      3413.33
     350.207     0.999756       349039      4096.00
     353.023     0.999780       349048      4551.11
     354.303     0.999805       349057      5120.00
     356.863     0.999829       349065      5851.43
     358.399     0.999854       349073      6826.67
     363.775     0.999878       349082      8192.00
     364.543     0.999890       349086      9102.22
     365.823     0.999902       349093     10240.00
     366.079     0.999915       349095     11702.86
     366.847     0.999927       349101     13653.33
     367.359     0.999939       349104     16384.00
     368.127     0.999945       349105     18204.44
     368.895     0.999951       349107     20480.00
     370.175     0.999957       349110     23405.71
     371.455     0.999963       349114     27306.67
     371.455     0.999969       349114     32768.00
     376.831     0.999973       349116     36408.89
     376.831     0.999976       349116     40960.00
     377.855     0.999979       349117     46811.43
     378.111     0.999982       349118     54613.33
     378.879     0.999985       349119     65536.00
     379.135     0.999986       349121     72817.78
     379.135     0.999988       349121     81920.00
     379.135     0.999989       349121     93622.86
     379.135     0.999991       349121    109226.67
     379.647     0.999992       349122    131072.00
     379.647     0.999993       349122    145635.56
     379.647     0.999994       349122    163840.00
     382.463     0.999995       349123    187245.71
     382.463     0.999995       349123    218453.33
     382.463     0.999996       349123    262144.00
     382.463     0.999997       349123    291271.11
     382.463     0.999997       349123    327680.00
     383.743     0.999997       349124    374491.43
     383.743     1.000000       349124          inf
#[Mean    =        6.564, StdDeviation   =       26.552]
#[Max     =      383.488, Total count    =       349124]
#[Buckets =           27, SubBuckets     =         2048]
----------------------------------------------------------
  419613 requests in 1.00m, 64.83MB read
Requests/sec:   6993.43
Transfer/sec:      1.08MB
-------------------------------------------
wrk -t4 -c100 -R8000 -d60 -L http://localhost:8081
Running 1m test @ http://localhost:8081
  4 threads and 100 connections
  Thread calibration: mean lat.: 16.239ms, rate sampling interval: 90ms
  Thread calibration: mean lat.: 16.004ms, rate sampling interval: 86ms
  Thread calibration: mean lat.: 16.917ms, rate sampling interval: 93ms
  Thread calibration: mean lat.: 16.872ms, rate sampling interval: 94ms
  Thread Stats   Avg      Stdev     Max   +/- Stdev
    Latency    42.41ms  145.32ms   1.18s    93.70%
    Req/Sec     2.01k   469.89     5.76k    82.97%
  Latency Distribution (HdrHistogram - Recorded Latency)
 50.000%    2.54ms
 75.000%   11.59ms
 90.000%   46.27ms
 99.000%  822.78ms
 99.900%    1.12s 
 99.990%    1.17s 
 99.999%    1.17s 
100.000%    1.19s 

  Detailed Percentile spectrum:
       Value   Percentile   TotalCount 1/(1-Percentile)

       0.081     0.000000            1         1.00
       0.777     0.100000        39917         1.11
       1.095     0.200000        79870         1.25
       1.403     0.300000       119725         1.43
       1.765     0.400000       159646         1.67
       2.535     0.500000       199546         2.00
       3.487     0.550000       219454         2.22
       4.759     0.600000       239444         2.50
       6.363     0.650000       259371         2.86
       8.519     0.700000       279336         3.33
      11.591     0.750000       299269         4.00
      13.639     0.775000       309228         4.44
      16.199     0.800000       319199         5.00
      19.759     0.825000       329201         5.71
      25.055     0.850000       339178         6.67
      33.023     0.875000       349161         8.00
      38.623     0.887500       354112         8.89
      46.271     0.900000       359114        10.00
      58.559     0.912500       364090        11.43
      83.135     0.925000       369081        13.33
     193.023     0.937500       374061        16.00
     241.151     0.943750       376558        17.78
     282.111     0.950000       379055        20.00
     335.359     0.956250       381545        22.86
     402.175     0.962500       384037        26.67
     491.007     0.968750       386534        32.00
     527.359     0.971875       387787        35.56
     581.631     0.975000       389040        40.00
     629.247     0.978125       390275        45.71
     692.735     0.981250       391523        53.33
     747.007     0.984375       392770        64.00
     766.975     0.985938       393388        71.11
     784.895     0.987500       394021        80.00
     805.887     0.989062       394639        91.43
     838.143     0.990625       395258       106.67
     890.367     0.992188       395879       128.00
     936.959     0.992969       396192       142.22
     958.975     0.993750       396507       160.00
     979.455     0.994531       396814       182.86
     996.863     0.995313       397135       213.33
    1009.663     0.996094       397439       256.00
    1017.343     0.996484       397605       284.44
    1025.023     0.996875       397758       320.00
    1035.775     0.997266       397910       365.71
    1047.551     0.997656       398064       426.67
    1059.839     0.998047       398218       512.00
    1065.983     0.998242       398296       568.89
    1073.151     0.998437       398383       640.00
    1081.343     0.998633       398454       731.43
    1102.847     0.998828       398530       853.33
    1117.183     0.999023       398607      1024.00
    1124.351     0.999121       398654      1137.78
    1128.447     0.999219       398692      1280.00
    1133.567     0.999316       398734      1462.86
    1137.663     0.999414       398768      1706.67
    1144.831     0.999512       398808      2048.00
    1146.879     0.999561       398822      2275.56
    1149.951     0.999609       398842      2560.00
    1153.023     0.999658       398863      2925.71
    1156.095     0.999707       398885      3413.33
    1158.143     0.999756       398905      4096.00
    1159.167     0.999780       398914      4551.11
    1161.215     0.999805       398921      5120.00
    1162.239     0.999829       398934      5851.43
    1163.263     0.999854       398938      6826.67
    1164.287     0.999878       398948      8192.00
    1165.311     0.999890       398954      9102.22
    1166.335     0.999902       398959     10240.00
    1167.359     0.999915       398967     11702.86
    1167.359     0.999927       398967     13653.33
    1169.407     0.999939       398973     16384.00
    1171.455     0.999945       398981     18204.44
    1171.455     0.999951       398981     20480.00
    1171.455     0.999957       398981     23405.71
    1172.479     0.999963       398986     27306.67
    1172.479     0.999969       398986     32768.00
    1172.479     0.999973       398986     36408.89
    1173.503     0.999976       398989     40960.00
    1173.503     0.999979       398989     46811.43
    1173.503     0.999982       398989     54613.33
    1174.527     0.999985       398992     65536.00
    1174.527     0.999986       398992     72817.78
    1174.527     0.999988       398992     81920.00
    1174.527     0.999989       398992     93622.86
    1175.551     0.999991       398994    109226.67
    1175.551     0.999992       398994    131072.00
    1175.551     0.999993       398994    145635.56
    1175.551     0.999994       398994    163840.00
    1175.551     0.999995       398994    187245.71
    1178.623     0.999995       398995    218453.33
    1178.623     0.999996       398995    262144.00
    1178.623     0.999997       398995    291271.11
    1178.623     0.999997       398995    327680.00
    1178.623     0.999997       398995    374491.43
    1185.791     0.999998       398996    436906.67
    1185.791     1.000000       398996          inf
#[Mean    =       42.409, StdDeviation   =      145.321]
#[Max     =     1184.768, Total count    =       398996]
#[Buckets =           27, SubBuckets     =         2048]
----------------------------------------------------------
  479448 requests in 1.00m, 74.07MB read
Requests/sec:   7990.83
Transfer/sec:      1.23MB
-------------------------------------------
wrk -t4 -c100 -R9000 -d60 -L http://localhost:8081
Running 1m test @ http://localhost:8081
  4 threads and 100 connections
  Thread calibration: mean lat.: 1.663ms, rate sampling interval: 10ms
  Thread calibration: mean lat.: 1.679ms, rate sampling interval: 10ms
  Thread calibration: mean lat.: 1.753ms, rate sampling interval: 10ms
  Thread calibration: mean lat.: 1.722ms, rate sampling interval: 10ms
  Thread Stats   Avg      Stdev     Max   +/- Stdev
    Latency     9.14ms   43.60ms 509.18ms   97.71%
    Req/Sec     2.40k     1.10k   19.40k    82.72%
  Latency Distribution (HdrHistogram - Recorded Latency)
 50.000%    1.38ms
 75.000%    2.31ms
 90.000%   10.52ms
 99.000%  288.00ms
 99.900%  467.20ms
 99.990%  497.92ms
 99.999%  508.16ms
100.000%  509.44ms

  Detailed Percentile spectrum:
       Value   Percentile   TotalCount 1/(1-Percentile)

       0.086     0.000000            1         1.00
       0.588     0.100000        45024         1.11
       0.809     0.200000        89999         1.25
       0.999     0.300000       134798         1.43
       1.185     0.400000       179727         1.67
       1.379     0.500000       224488         2.00
       1.482     0.550000       246900         2.22
       1.599     0.600000       269350         2.50
       1.743     0.650000       291908         2.86
       1.935     0.700000       314227         3.33
       2.305     0.750000       336706         4.00
       2.799     0.775000       347870         4.44
       3.675     0.800000       359109         5.00
       4.799     0.825000       370320         5.71
       6.255     0.850000       381534         6.67
       8.055     0.875000       392752         8.00
       9.215     0.887500       398384         8.89
      10.519     0.900000       403981        10.00
      12.335     0.912500       409605        11.43
      14.623     0.925000       415204        13.33
      17.759     0.937500       420808        16.00
      19.807     0.943750       423629        17.78
      22.239     0.950000       426433        20.00
      25.679     0.956250       429236        22.86
      30.015     0.962500       432032        26.67
      36.671     0.968750       434835        32.00
      41.151     0.971875       436238        35.56
      46.655     0.975000       437638        40.00
      57.087     0.978125       439040        45.71
      83.199     0.981250       440442        53.33
     146.431     0.984375       441847        64.00
     200.063     0.985938       442546        71.11
     247.807     0.987500       443249        80.00
     276.479     0.989062       443953        91.43
     295.679     0.990625       444659       106.67
     323.327     0.992188       445352       128.00
     353.023     0.992969       445701       142.22
     373.247     0.993750       446054       160.00
     393.727     0.994531       446405       182.86
     406.271     0.995313       446754       213.33
     418.303     0.996094       447111       256.00
     425.471     0.996484       447279       284.44
     433.407     0.996875       447462       320.00
     439.295     0.997266       447630       365.71
     444.159     0.997656       447805       426.67
     449.279     0.998047       447984       512.00
     452.351     0.998242       448081       568.89
     455.423     0.998437       448165       640.00
     458.239     0.998633       448245       731.43
     461.823     0.998828       448337       853.33
     467.711     0.999023       448419      1024.00
     469.759     0.999121       448469      1137.78
     472.319     0.999219       448511      1280.00
     475.391     0.999316       448551      1462.86
     477.951     0.999414       448597      1706.67
     481.023     0.999512       448639      2048.00
     483.327     0.999561       448665      2275.56
     484.863     0.999609       448684      2560.00
     486.911     0.999658       448706      2925.71
     488.447     0.999707       448727      3413.33
     489.727     0.999756       448748      4096.00
     491.263     0.999780       448760      4551.11
     492.287     0.999805       448771      5120.00
     493.055     0.999829       448782      5851.43
     494.335     0.999854       448792      6826.67
     496.383     0.999878       448803      8192.00
     497.663     0.999890       448809      9102.22
     498.431     0.999902       448815     10240.00
     499.455     0.999915       448819     11702.86
     500.735     0.999927       448825     13653.33
     501.503     0.999939       448831     16384.00
     501.759     0.999945       448833     18204.44
     502.015     0.999951       448836     20480.00
     502.783     0.999957       448838     23405.71
     504.575     0.999963       448842     27306.67
     505.087     0.999969       448845     32768.00
     505.087     0.999973       448845     36408.89
     505.599     0.999976       448847     40960.00
     505.855     0.999979       448848     46811.43
     506.367     0.999982       448850     54613.33
     506.623     0.999985       448851     65536.00
     506.623     0.999986       448851     72817.78
     508.159     0.999988       448853     81920.00
     508.159     0.999989       448853     93622.86
     508.159     0.999991       448853    109226.67
     508.415     0.999992       448855    131072.00
     508.415     0.999993       448855    145635.56
     508.415     0.999994       448855    163840.00
     508.415     0.999995       448855    187245.71
     508.415     0.999995       448855    218453.33
     508.927     0.999996       448856    262144.00
     508.927     0.999997       448856    291271.11
     508.927     0.999997       448856    327680.00
     508.927     0.999997       448856    374491.43
     508.927     0.999998       448856    436906.67
     509.439     0.999998       448857    524288.00
     509.439     1.000000       448857          inf
#[Mean    =        9.138, StdDeviation   =       43.601]
#[Max     =      509.184, Total count    =       448857]
#[Buckets =           27, SubBuckets     =         2048]
----------------------------------------------------------
  537371 requests in 1.00m, 83.02MB read
Requests/sec:   8955.86
Transfer/sec:      1.38MB
-------------------------------------------
wrk -t4 -c100 -R10000 -d60 -L http://localhost:8081
Running 1m test @ http://localhost:8081
  4 threads and 100 connections
  Thread calibration: mean lat.: 6.693ms, rate sampling interval: 33ms
  Thread calibration: mean lat.: 6.701ms, rate sampling interval: 34ms
  Thread calibration: mean lat.: 6.536ms, rate sampling interval: 33ms
  Thread calibration: mean lat.: 6.697ms, rate sampling interval: 34ms
  Thread Stats   Avg      Stdev     Max   +/- Stdev
    Latency     9.02ms   30.99ms 467.71ms   95.16%
    Req/Sec     2.55k   818.22    12.88k    85.12%
  Latency Distribution (HdrHistogram - Recorded Latency)
 50.000%    1.65ms
 75.000%    4.31ms
 90.000%   15.68ms
 99.000%  151.17ms
 99.900%  413.95ms
 99.990%  447.23ms
 99.999%  462.85ms
100.000%  467.97ms

  Detailed Percentile spectrum:
       Value   Percentile   TotalCount 1/(1-Percentile)

       0.101     0.000000            2         1.00
       0.701     0.100000        50082         1.11
       0.931     0.200000        99924         1.25
       1.143     0.300000       149990         1.43
       1.378     0.400000       199875         1.67
       1.650     0.500000       249821         2.00
       1.817     0.550000       274788         2.22
       2.024     0.600000       299779         2.50
       2.343     0.650000       324829         2.86
       3.015     0.700000       349731         3.33
       4.311     0.750000       374714         4.00
       5.155     0.775000       387200         4.44
       6.227     0.800000       399685         5.00
       7.499     0.825000       412184         5.71
       9.247     0.850000       424707         6.67
      11.663     0.875000       437169         8.00
      13.487     0.887500       443412         8.89
      15.679     0.900000       449642        10.00
      18.655     0.912500       455881        11.43
      22.943     0.925000       462148        13.33
      29.263     0.937500       468371        16.00
      33.631     0.943750       471512        17.78
      38.623     0.950000       474618        20.00
      44.639     0.956250       477749        22.86
      51.775     0.962500       480865        26.67
      60.799     0.968750       483983        32.00
      65.855     0.971875       485556        35.56
      72.511     0.975000       487113        40.00
      81.023     0.978125       488676        45.71
      90.559     0.981250       490231        53.33
     102.783     0.984375       491790        64.00
     110.655     0.985938       492570        71.11
     123.391     0.987500       493353        80.00
     139.903     0.989062       494131        91.43
     161.023     0.990625       494918       106.67
     182.527     0.992188       495695       128.00
     193.535     0.992969       496088       142.22
     203.775     0.993750       496476       160.00
     218.751     0.994531       496863       182.86
     239.615     0.995313       497254       213.33
     273.407     0.996094       497646       256.00
     286.975     0.996484       497840       284.44
     301.567     0.996875       498038       320.00
     315.135     0.997266       498231       365.71
     332.031     0.997656       498427       426.67
     359.679     0.998047       498620       512.00
     374.015     0.998242       498719       568.89
     391.423     0.998437       498815       640.00
     398.335     0.998633       498912       731.43
     405.759     0.998828       499012       853.33
     415.231     0.999023       499109      1024.00
     419.071     0.999121       499158      1137.78
     421.119     0.999219       499206      1280.00
     424.191     0.999316       499254      1462.86
     428.543     0.999414       499306      1706.67
     430.079     0.999512       499356      2048.00
     431.871     0.999561       499376      2275.56
     433.919     0.999609       499400      2560.00
     435.967     0.999658       499427      2925.71
     437.759     0.999707       499449      3413.33
     439.807     0.999756       499480      4096.00
     440.319     0.999780       499487      4551.11
     441.855     0.999805       499499      5120.00
     443.903     0.999829       499513      5851.43
     444.671     0.999854       499523      6826.67
     446.207     0.999878       499537      8192.00
     446.975     0.999890       499543      9102.22
     447.231     0.999902       499547     10240.00
     447.743     0.999915       499554     11702.86
     448.511     0.999927       499559     13653.33
     449.279     0.999939       499565     16384.00
     450.559     0.999945       499568     18204.44
     451.839     0.999951       499571     20480.00
     452.863     0.999957       499574     23405.71
     453.887     0.999963       499578     27306.67
     455.679     0.999969       499581     32768.00
     456.191     0.999973       499583     36408.89
     456.191     0.999976       499583     40960.00
     458.751     0.999979       499585     46811.43
     459.007     0.999982       499586     54613.33
     460.799     0.999985       499588     65536.00
     462.847     0.999986       499590     72817.78
     462.847     0.999988       499590     81920.00
     462.847     0.999989       499590     93622.86
     463.103     0.999991       499591    109226.67
     463.615     0.999992       499593    131072.00
     463.615     0.999993       499593    145635.56
     463.615     0.999994       499593    163840.00
     463.615     0.999995       499593    187245.71
     463.615     0.999995       499593    218453.33
     464.383     0.999996       499594    262144.00
     464.383     0.999997       499594    291271.11
     464.383     0.999997       499594    327680.00
     464.383     0.999997       499594    374491.43
     464.383     0.999998       499594    436906.67
     467.967     0.999998       499595    524288.00
     467.967     1.000000       499595          inf
#[Mean    =        9.016, StdDeviation   =       30.992]
#[Max     =      467.712, Total count    =       499595]
#[Buckets =           27, SubBuckets     =         2048]
----------------------------------------------------------
  597035 requests in 1.00m, 92.24MB read
Requests/sec:   9950.41
Transfer/sec:      1.54MB
-------------------------------------------
