Running 1m test @ http://localhost/
  8 threads and 100 connections
  Thread calibration: mean lat.: 30.591ms, rate sampling interval: 150ms
  Thread calibration: mean lat.: 38.116ms, rate sampling interval: 284ms
  Thread calibration: mean lat.: 31.221ms, rate sampling interval: 192ms
  Thread calibration: mean lat.: 41.210ms, rate sampling interval: 255ms
  Thread calibration: mean lat.: 26.357ms, rate sampling interval: 154ms
  Thread calibration: mean lat.: 31.784ms, rate sampling interval: 164ms
  Thread calibration: mean lat.: 39.265ms, rate sampling interval: 208ms
  Thread calibration: mean lat.: 52.381ms, rate sampling interval: 317ms
  Thread Stats   Avg      Stdev     Max   +/- Stdev
    Latency   196.13ms  383.26ms   2.56s    88.17%
    Req/Sec    12.60k     3.16k   34.67k    77.88%
  Latency Distribution (HdrHistogram - Recorded Latency)
 50.000%   26.72ms
 75.000%  171.52ms
 90.000%  700.41ms
 99.000%    1.87s 
 99.900%    2.42s 
 99.990%    2.52s 
 99.999%    2.55s 
100.000%    2.56s 

  Detailed Percentile spectrum:
       Value   Percentile   TotalCount 1/(1-Percentile)

       0.019     0.000000            3         1.00
       1.271     0.100000       501605         1.11
       3.359     0.200000      1003196         1.25
       7.083     0.300000      1504891         1.43
      13.791     0.400000      2006469         1.67
      26.719     0.500000      2507869         2.00
      37.823     0.550000      2758575         2.22
      54.015     0.600000      3009556         2.50
      78.207     0.650000      3260377         2.86
     115.903     0.700000      3511197         3.33
     171.519     0.750000      3761887         4.00
     212.351     0.775000      3887068         4.44
     257.407     0.800000      4012624         5.00
     313.855     0.825000      4137893         5.71
     407.551     0.850000      4263406         6.67
     534.015     0.875000      4388904         8.00
     619.007     0.887500      4451293         8.89
     700.415     0.900000      4514176        10.00
     776.703     0.912500      4576844        11.43
     868.863     0.925000      4639499        13.33
     964.095     0.937500      4702215        16.00
    1015.295     0.943750      4733622        17.78
    1071.103     0.950000      4765042        20.00
    1134.591     0.956250      4796183        22.86
    1197.055     0.962500      4827524        26.67
    1282.047     0.968750      4858962        32.00
    1345.535     0.971875      4874655        35.56
    1428.479     0.975000      4890214        40.00
    1506.303     0.978125      4906014        45.71
    1602.559     0.981250      4921656        53.33
    1680.383     0.984375      4937286        64.00
    1726.463     0.985938      4945137        71.11
    1772.543     0.987500      4952907        80.00
    1826.815     0.989062      4960704        91.43
    1892.351     0.990625      4968640       106.67
    1947.647     0.992188      4976382       128.00
    1972.223     0.992969      4980299       142.22
    2006.015     0.993750      4984258       160.00
    2029.567     0.994531      4988127       182.86
    2074.623     0.995313      4992097       213.33
    2131.967     0.996094      4996016       256.00
    2166.783     0.996484      4998019       284.44
    2201.599     0.996875      4999895       320.00
    2230.271     0.997266      5001923       365.71
    2252.799     0.997656      5003815       426.67
    2293.759     0.998047      5005829       512.00
    2326.527     0.998242      5006736       568.89
    2347.007     0.998437      5007810       640.00
    2365.439     0.998633      5008706       731.43
    2396.159     0.998828      5009669       853.33
    2420.735     0.999023      5010695      1024.00
    2428.927     0.999121      5011120      1137.78
    2441.215     0.999219      5011726      1280.00
    2447.359     0.999316      5012130      1462.86
    2453.503     0.999414      5012591      1706.67
    2461.695     0.999512      5013138      2048.00
    2465.791     0.999561      5013379      2275.56
    2469.887     0.999609      5013605      2560.00
    2473.983     0.999658      5013856      2925.71
    2478.079     0.999707      5014081      3413.33
    2484.223     0.999756      5014365      4096.00
    2486.271     0.999780      5014435      4551.11
    2492.415     0.999805      5014581      5120.00
    2496.511     0.999829      5014734      5851.43
    2500.607     0.999854      5014821      6826.67
    2506.751     0.999878      5014940      8192.00
    2510.847     0.999890      5014980      9102.22
    2525.183     0.999902      5015040     10240.00
    2535.423     0.999915      5015125     11702.86
    2537.471     0.999927      5015174     13653.33
    2539.519     0.999939      5015250     16384.00
    2541.567     0.999945      5015317     18204.44
    2541.567     0.999951      5015317     20480.00
    2541.567     0.999957      5015317     23405.71
    2543.615     0.999963      5015381     27306.67
    2543.615     0.999969      5015381     32768.00
    2545.663     0.999973      5015431     36408.89
    2545.663     0.999976      5015431     40960.00
    2545.663     0.999979      5015431     46811.43
    2547.711     0.999982      5015465     54613.33
    2547.711     0.999985      5015465     65536.00
    2547.711     0.999986      5015465     72817.78
    2549.759     0.999988      5015485     81920.00
    2549.759     0.999989      5015485     93622.86
    2549.759     0.999991      5015485    109226.67
    2551.807     0.999992      5015507    131072.00
    2551.807     0.999993      5015507    145635.56
    2551.807     0.999994      5015507    163840.00
    2551.807     0.999995      5015507    187245.71
    2551.807     0.999995      5015507    218453.33
    2553.855     0.999996      5015519    262144.00
    2553.855     0.999997      5015519    291271.11
    2553.855     0.999997      5015519    327680.00
    2553.855     0.999997      5015519    374491.43
    2553.855     0.999998      5015519    436906.67
    2553.855     0.999998      5015519    524288.00
    2555.903     0.999998      5015526    582542.22
    2555.903     0.999998      5015526    655360.00
    2555.903     0.999999      5015526    748982.86
    2555.903     0.999999      5015526    873813.33
    2555.903     0.999999      5015526   1048576.00
    2555.903     0.999999      5015526   1165084.44
    2555.903     0.999999      5015526   1310720.00
    2555.903     0.999999      5015526   1497965.71
    2555.903     0.999999      5015526   1747626.67
    2555.903     1.000000      5015526   2097152.00
    2555.903     1.000000      5015526   2330168.89
    2557.951     1.000000      5015528   2621440.00
    2557.951     1.000000      5015528          inf
#[Mean    =      196.128, StdDeviation   =      383.265]
#[Max     =     2555.904, Total count    =      5015528]
#[Buckets =           27, SubBuckets     =         2048]
----------------------------------------------------------
  5986673 requests in 1.00m, 1.13GB read
Requests/sec:  99779.48
Transfer/sec:     19.32MB
